%YAML 1.1
%TAG !u! tag:unity3d.com,2011:
--- !u!114 &11400000
MonoBehaviour:
  m_ObjectHideFlags: 0
  m_CorrespondingSourceObject: {fileID: 0}
  m_PrefabInstance: {fileID: 0}
  m_PrefabAsset: {fileID: 0}
  m_GameObject: {fileID: 0}
  m_Enabled: 1
  m_EditorHideFlags: 0
  m_Script: {fileID: 11500000, guid: e98cd1133e923164e9f05be27b95e659, type: 3}
  m_Name: QuestionDataNapoleon
  m_EditorClassIdentifier: 
  questions:
  - questionInfo: What nationality was his family actually from?
    options:
    - German
    - Italian
    - Spanish
    correctAns: Italian
  - questionInfo: "How tall (measured by today\u2019s standards) was he really?"
    options:
    - 4 foot 5 inches
    - 5 foot 0 inches
    - 5 foot 6 inches
    correctAns: 5 foot 6 inches
  - questionInfo: What is the name of the romance novel He wrote in his twenties?
    options:
    - "Clisson et Eug\xE9nie"
    - "L\u2019AMANT"
    - La Cousine Bette
    correctAns: "Clisson et Eug\xE9nie"
